\babel@toc {english}{}
\contentsline {chapter}{\numberline {1}Security Games}{3}{chapter.1}%
\contentsline {chapter}{\numberline {2}Index: Modern Cryptography}{4}{chapter.2}%
\contentsline {section}{\numberline {2.1}Perfect Secrecy}{4}{section.2.1}%
\contentsline {section}{\numberline {2.2}Substitution}{4}{section.2.2}%
\contentsline {section}{\numberline {2.3}AES \& BlockCiphers}{4}{section.2.3}%
\contentsline {section}{\numberline {2.4}Proof Techniques}{4}{section.2.4}%
\contentsline {section}{\numberline {2.5}Symmetric Encryption Schemes}{4}{section.2.5}%
\contentsline {section}{\numberline {2.6}Number Theory}{5}{section.2.6}%
\contentsline {section}{\numberline {2.7}Asymmetric Encryption Scheme}{5}{section.2.7}%
\contentsline {section}{\numberline {2.8}Hash}{5}{section.2.8}%
\contentsline {section}{\numberline {2.9}MAC}{5}{section.2.9}%
