PWD /Users/julijankatic/Documents/Universitaet/Master/Semester3/spmc/sum
INPUT /usr/local/texlive/2020/texmf.cnf
INPUT /usr/local/texlive/2020/texmf-dist/web2c/texmf.cnf
INPUT /usr/local/texlive/2020/texmf-var/web2c/pdftex/pdflatex.fmt
INPUT /Users/julijankatic/Documents/Universitaet/Master/Semester3/spmc/sum/summarize.tex
OUTPUT /Users/julijankatic/Documents/Universitaet/Master/Semester3/spmc/sum/summarize.log
INPUT /usr/local/texlive/2020/texmf-dist/tex/latex/base/book.cls
INPUT /usr/local/texlive/2020/texmf-dist/tex/latex/base/book.cls
INPUT /usr/local/texlive/2020/texmf-dist/tex/latex/base/book.cls
INPUT /usr/local/texlive/2020/texmf-dist/tex/latex/base/book.cls
INPUT /usr/local/texlive/2020/texmf-dist/tex/latex/base/book.cls
INPUT /usr/local/texlive/2020/texmf-dist/tex/latex/base/book.cls
INPUT /usr/local/texlive/2020/texmf-dist/tex/latex/base/book.cls
INPUT /usr/local/texlive/2020/texmf-dist/tex/latex/base/book.cls
INPUT /usr/local/texlive/2020/texmf-dist/tex/latex/base/book.cls
INPUT /usr/local/texlive/2020/texmf-dist/tex/latex/base/book.cls
INPUT /usr/local/texlive/2020/texmf-dist/tex/latex/base/bk10.clo
INPUT /usr/local/texlive/2020/texmf-dist/tex/latex/base/bk10.clo
INPUT /usr/local/texlive/2020/texmf-dist/tex/latex/base/bk10.clo
INPUT /usr/local/texlive/2020/texmf-dist/tex/latex/base/bk10.clo
INPUT /usr/local/texlive/2020/texmf-dist/tex/generic/babel/babel.sty
INPUT /usr/local/texlive/2020/texmf-dist/tex/generic/babel/babel.sty
INPUT /usr/local/texlive/2020/texmf-dist/tex/generic/babel/babel.sty
INPUT /usr/local/texlive/2020/texmf-dist/tex/generic/babel/babel.sty
INPUT /usr/local/texlive/2020/texmf-dist/tex/generic/babel/babel.sty
INPUT /usr/local/texlive/2020/texmf-dist/tex/generic/babel/babel.sty
INPUT /usr/local/texlive/2020/texmf-dist/tex/generic/babel/babel.sty
INPUT /usr/local/texlive/2020/texmf-dist/tex/generic/babel/babel.sty
INPUT /usr/local/texlive/2020/texmf-dist/tex/generic/babel/babel.sty
INPUT /usr/local/texlive/2020/texmf-dist/tex/generic/babel/babel.sty
INPUT /usr/local/texlive/2020/texmf-dist/tex/generic/babel/babel.def
INPUT /usr/local/texlive/2020/texmf-dist/tex/generic/babel/txtbabel.def
INPUT /usr/local/texlive/2020/texmf-dist/tex/generic/babel-english/english.ldf
INPUT /usr/local/texlive/2020/texmf-dist/tex/generic/babel-english/english.ldf
INPUT /usr/local/texlive/2020/texmf-dist/tex/generic/babel-english/english.ldf
INPUT /usr/local/texlive/2020/texmf-dist/tex/generic/babel-english/english.ldf
INPUT /usr/local/texlive/2020/texmf-dist/tex/latex/amsmath/amsmath.sty
INPUT /usr/local/texlive/2020/texmf-dist/tex/latex/amsmath/amsmath.sty
INPUT /usr/local/texlive/2020/texmf-dist/tex/latex/amsmath/amsmath.sty
INPUT /usr/local/texlive/2020/texmf-dist/tex/latex/amsmath/amsmath.sty
INPUT /usr/local/texlive/2020/texmf-dist/tex/latex/amsmath/amsmath.sty
INPUT /usr/local/texlive/2020/texmf-dist/tex/latex/amsmath/amsmath.sty
INPUT /usr/local/texlive/2020/texmf-dist/tex/latex/amsmath/amsmath.sty
INPUT /usr/local/texlive/2020/texmf-dist/tex/latex/amsmath/amsmath.sty
INPUT /usr/local/texlive/2020/texmf-dist/tex/latex/amsmath/amsmath.sty
INPUT /usr/local/texlive/2020/texmf-dist/tex/latex/amsmath/amsmath.sty
INPUT /usr/local/texlive/2020/texmf-dist/tex/latex/amsmath/amsopn.sty
INPUT /usr/local/texlive/2020/texmf-dist/tex/latex/amsmath/amsopn.sty
INPUT /usr/local/texlive/2020/texmf-dist/tex/latex/amsmath/amstext.sty
INPUT /usr/local/texlive/2020/texmf-dist/tex/latex/amsmath/amstext.sty
INPUT /usr/local/texlive/2020/texmf-dist/tex/latex/amsmath/amstext.sty
INPUT /usr/local/texlive/2020/texmf-dist/tex/latex/amsmath/amstext.sty
INPUT /usr/local/texlive/2020/texmf-dist/tex/latex/amsmath/amstext.sty
INPUT /usr/local/texlive/2020/texmf-dist/tex/latex/amsmath/amstext.sty
INPUT /usr/local/texlive/2020/texmf-dist/tex/latex/amsmath/amstext.sty
INPUT /usr/local/texlive/2020/texmf-dist/tex/latex/amsmath/amstext.sty
INPUT /usr/local/texlive/2020/texmf-dist/tex/latex/amsmath/amstext.sty
INPUT /usr/local/texlive/2020/texmf-dist/tex/latex/amsmath/amstext.sty
INPUT /usr/local/texlive/2020/texmf-dist/tex/latex/amsmath/amsgen.sty
INPUT /usr/local/texlive/2020/texmf-dist/tex/latex/amsmath/amsgen.sty
INPUT /usr/local/texlive/2020/texmf-dist/tex/latex/amsmath/amsgen.sty
INPUT /usr/local/texlive/2020/texmf-dist/tex/latex/amsmath/amsgen.sty
INPUT /usr/local/texlive/2020/texmf-dist/tex/latex/amsmath/amsgen.sty
INPUT /usr/local/texlive/2020/texmf-dist/tex/latex/amsmath/amsgen.sty
INPUT /usr/local/texlive/2020/texmf-dist/tex/latex/amsmath/amsgen.sty
INPUT /usr/local/texlive/2020/texmf-dist/tex/latex/amsmath/amsgen.sty
INPUT /usr/local/texlive/2020/texmf-dist/tex/latex/amsmath/amsgen.sty
INPUT /usr/local/texlive/2020/texmf-dist/tex/latex/amsmath/amsgen.sty
INPUT /usr/local/texlive/2020/texmf-dist/tex/latex/amsmath/amsbsy.sty
INPUT /usr/local/texlive/2020/texmf-dist/tex/latex/amsmath/amsbsy.sty
INPUT /usr/local/texlive/2020/texmf-dist/tex/latex/amsmath/amsbsy.sty
INPUT /usr/local/texlive/2020/texmf-dist/tex/latex/amsmath/amsbsy.sty
INPUT /usr/local/texlive/2020/texmf-dist/tex/latex/amsmath/amsbsy.sty
INPUT /usr/local/texlive/2020/texmf-dist/tex/latex/amsmath/amsbsy.sty
INPUT /usr/local/texlive/2020/texmf-dist/tex/latex/amsmath/amsbsy.sty
INPUT /usr/local/texlive/2020/texmf-dist/tex/latex/amsmath/amsbsy.sty
INPUT /usr/local/texlive/2020/texmf-dist/tex/latex/amsmath/amsbsy.sty
INPUT /usr/local/texlive/2020/texmf-dist/tex/latex/amsmath/amsbsy.sty
INPUT /usr/local/texlive/2020/texmf-dist/tex/latex/amsmath/amsopn.sty
INPUT /usr/local/texlive/2020/texmf-dist/tex/latex/amsmath/amsopn.sty
INPUT /usr/local/texlive/2020/texmf-dist/tex/latex/amsmath/amsopn.sty
INPUT /usr/local/texlive/2020/texmf-dist/tex/latex/amsmath/amsopn.sty
INPUT /usr/local/texlive/2020/texmf-dist/tex/latex/amsmath/amsopn.sty
INPUT /usr/local/texlive/2020/texmf-dist/tex/latex/amsmath/amsopn.sty
INPUT /usr/local/texlive/2020/texmf-dist/tex/latex/amsmath/amsopn.sty
INPUT /usr/local/texlive/2020/texmf-dist/tex/latex/amsmath/amsopn.sty
INPUT /usr/local/texlive/2020/texmf-dist/tex/latex/amsmath/amsopn.sty
INPUT /usr/local/texlive/2020/texmf-dist/tex/latex/amsmath/amsopn.sty
INPUT /usr/local/texlive/2020/texmf-dist/tex/latex/amsfonts/amssymb.sty
INPUT /usr/local/texlive/2020/texmf-dist/tex/latex/amsfonts/amssymb.sty
INPUT /usr/local/texlive/2020/texmf-dist/tex/latex/amsfonts/amssymb.sty
INPUT /usr/local/texlive/2020/texmf-dist/tex/latex/amsfonts/amssymb.sty
INPUT /usr/local/texlive/2020/texmf-dist/tex/latex/amsfonts/amssymb.sty
INPUT /usr/local/texlive/2020/texmf-dist/tex/latex/amsfonts/amssymb.sty
INPUT /usr/local/texlive/2020/texmf-dist/tex/latex/amsfonts/amssymb.sty
INPUT /usr/local/texlive/2020/texmf-dist/tex/latex/amsfonts/amssymb.sty
INPUT /usr/local/texlive/2020/texmf-dist/tex/latex/amsfonts/amssymb.sty
INPUT /usr/local/texlive/2020/texmf-dist/tex/latex/amsfonts/amssymb.sty
INPUT /usr/local/texlive/2020/texmf-dist/tex/latex/amsfonts/amsfonts.sty
INPUT /usr/local/texlive/2020/texmf-dist/tex/latex/amsfonts/amsfonts.sty
INPUT /usr/local/texlive/2020/texmf-dist/tex/latex/amsfonts/amsfonts.sty
INPUT /usr/local/texlive/2020/texmf-dist/tex/latex/amsfonts/amsfonts.sty
INPUT /usr/local/texlive/2020/texmf-dist/tex/latex/amsfonts/amsfonts.sty
INPUT /usr/local/texlive/2020/texmf-dist/tex/latex/amsfonts/amsfonts.sty
INPUT /usr/local/texlive/2020/texmf-dist/tex/latex/amsfonts/amsfonts.sty
INPUT /usr/local/texlive/2020/texmf-dist/tex/latex/amsfonts/amsfonts.sty
INPUT /usr/local/texlive/2020/texmf-dist/tex/latex/amsfonts/amsfonts.sty
INPUT /usr/local/texlive/2020/texmf-dist/tex/latex/amsfonts/amsfonts.sty
INPUT /usr/local/texlive/2020/texmf-dist/tex/latex/ntheorem/ntheorem.sty
INPUT /usr/local/texlive/2020/texmf-dist/tex/latex/ntheorem/ntheorem.sty
INPUT /usr/local/texlive/2020/texmf-dist/tex/latex/ntheorem/ntheorem.sty
INPUT /usr/local/texlive/2020/texmf-dist/tex/latex/ntheorem/ntheorem.sty
INPUT /usr/local/texlive/2020/texmf-dist/tex/latex/ntheorem/ntheorem.sty
INPUT /usr/local/texlive/2020/texmf-dist/tex/latex/ntheorem/ntheorem.sty
INPUT /usr/local/texlive/2020/texmf-dist/tex/latex/ntheorem/ntheorem.sty
INPUT /usr/local/texlive/2020/texmf-dist/tex/latex/ntheorem/ntheorem.sty
INPUT /usr/local/texlive/2020/texmf-dist/tex/latex/ntheorem/ntheorem.sty
INPUT /usr/local/texlive/2020/texmf-dist/tex/latex/ntheorem/ntheorem.sty
INPUT /usr/local/texlive/2020/texmf-dist/tex/latex/base/ifthen.sty
INPUT /usr/local/texlive/2020/texmf-dist/tex/latex/base/ifthen.sty
INPUT /usr/local/texlive/2020/texmf-dist/tex/latex/base/ifthen.sty
INPUT /usr/local/texlive/2020/texmf-dist/tex/latex/base/ifthen.sty
INPUT /usr/local/texlive/2020/texmf-dist/tex/latex/base/ifthen.sty
INPUT /usr/local/texlive/2020/texmf-dist/tex/latex/base/ifthen.sty
INPUT /usr/local/texlive/2020/texmf-dist/tex/latex/base/ifthen.sty
INPUT /usr/local/texlive/2020/texmf-dist/tex/latex/base/ifthen.sty
INPUT /usr/local/texlive/2020/texmf-dist/tex/latex/base/ifthen.sty
INPUT /usr/local/texlive/2020/texmf-dist/tex/latex/base/ifthen.sty
INPUT /usr/local/texlive/2020/texmf-dist/tex/latex/thmtools/thmtools.sty
INPUT /usr/local/texlive/2020/texmf-dist/tex/latex/thmtools/thmtools.sty
INPUT /usr/local/texlive/2020/texmf-dist/tex/latex/thmtools/thmtools.sty
INPUT /usr/local/texlive/2020/texmf-dist/tex/latex/thmtools/thmtools.sty
INPUT /usr/local/texlive/2020/texmf-dist/tex/latex/thmtools/thmtools.sty
INPUT /usr/local/texlive/2020/texmf-dist/tex/latex/thmtools/thmtools.sty
INPUT /usr/local/texlive/2020/texmf-dist/tex/latex/thmtools/thmtools.sty
INPUT /usr/local/texlive/2020/texmf-dist/tex/latex/thmtools/thmtools.sty
INPUT /usr/local/texlive/2020/texmf-dist/tex/latex/thmtools/thmtools.sty
INPUT /usr/local/texlive/2020/texmf-dist/tex/latex/thmtools/thmtools.sty
INPUT /usr/local/texlive/2020/texmf-dist/tex/latex/thmtools/thm-patch.sty
INPUT /usr/local/texlive/2020/texmf-dist/tex/latex/thmtools/thm-patch.sty
INPUT /usr/local/texlive/2020/texmf-dist/tex/latex/thmtools/thm-patch.sty
INPUT /usr/local/texlive/2020/texmf-dist/tex/latex/thmtools/thm-patch.sty
INPUT /usr/local/texlive/2020/texmf-dist/tex/latex/thmtools/thm-patch.sty
INPUT /usr/local/texlive/2020/texmf-dist/tex/latex/thmtools/thm-patch.sty
INPUT /usr/local/texlive/2020/texmf-dist/tex/latex/thmtools/thm-patch.sty
INPUT /usr/local/texlive/2020/texmf-dist/tex/latex/thmtools/thm-patch.sty
INPUT /usr/local/texlive/2020/texmf-dist/tex/latex/thmtools/thm-patch.sty
INPUT /usr/local/texlive/2020/texmf-dist/tex/latex/thmtools/thm-patch.sty
INPUT /usr/local/texlive/2020/texmf-dist/tex/latex/thmtools/parseargs.sty
INPUT /usr/local/texlive/2020/texmf-dist/tex/latex/thmtools/parseargs.sty
INPUT /usr/local/texlive/2020/texmf-dist/tex/latex/thmtools/parseargs.sty
INPUT /usr/local/texlive/2020/texmf-dist/tex/latex/thmtools/parseargs.sty
INPUT /usr/local/texlive/2020/texmf-dist/tex/latex/thmtools/parseargs.sty
INPUT /usr/local/texlive/2020/texmf-dist/tex/latex/thmtools/parseargs.sty
INPUT /usr/local/texlive/2020/texmf-dist/tex/latex/thmtools/parseargs.sty
INPUT /usr/local/texlive/2020/texmf-dist/tex/latex/thmtools/parseargs.sty
INPUT /usr/local/texlive/2020/texmf-dist/tex/latex/thmtools/parseargs.sty
INPUT /usr/local/texlive/2020/texmf-dist/tex/latex/thmtools/parseargs.sty
INPUT /usr/local/texlive/2020/texmf-dist/tex/latex/thmtools/thm-kv.sty
INPUT /usr/local/texlive/2020/texmf-dist/tex/latex/thmtools/thm-kv.sty
INPUT /usr/local/texlive/2020/texmf-dist/tex/latex/thmtools/thm-kv.sty
INPUT /usr/local/texlive/2020/texmf-dist/tex/latex/thmtools/thm-kv.sty
INPUT /usr/local/texlive/2020/texmf-dist/tex/latex/thmtools/thm-kv.sty
INPUT /usr/local/texlive/2020/texmf-dist/tex/latex/thmtools/thm-kv.sty
INPUT /usr/local/texlive/2020/texmf-dist/tex/latex/thmtools/thm-kv.sty
INPUT /usr/local/texlive/2020/texmf-dist/tex/latex/thmtools/thm-kv.sty
INPUT /usr/local/texlive/2020/texmf-dist/tex/latex/thmtools/thm-kv.sty
INPUT /usr/local/texlive/2020/texmf-dist/tex/latex/thmtools/thm-kv.sty
INPUT /usr/local/texlive/2020/texmf-dist/tex/latex/graphics/keyval.sty
INPUT /usr/local/texlive/2020/texmf-dist/tex/latex/graphics/keyval.sty
INPUT /usr/local/texlive/2020/texmf-dist/tex/latex/graphics/keyval.sty
INPUT /usr/local/texlive/2020/texmf-dist/tex/latex/graphics/keyval.sty
INPUT /usr/local/texlive/2020/texmf-dist/tex/latex/graphics/keyval.sty
INPUT /usr/local/texlive/2020/texmf-dist/tex/latex/graphics/keyval.sty
INPUT /usr/local/texlive/2020/texmf-dist/tex/latex/graphics/keyval.sty
INPUT /usr/local/texlive/2020/texmf-dist/tex/latex/graphics/keyval.sty
INPUT /usr/local/texlive/2020/texmf-dist/tex/latex/graphics/keyval.sty
INPUT /usr/local/texlive/2020/texmf-dist/tex/latex/graphics/keyval.sty
INPUT /usr/local/texlive/2020/texmf-dist/tex/generic/kvsetkeys/kvsetkeys.sty
INPUT /usr/local/texlive/2020/texmf-dist/tex/generic/kvsetkeys/kvsetkeys.sty
INPUT /usr/local/texlive/2020/texmf-dist/tex/generic/kvsetkeys/kvsetkeys.sty
INPUT /usr/local/texlive/2020/texmf-dist/tex/generic/kvsetkeys/kvsetkeys.sty
INPUT /usr/local/texlive/2020/texmf-dist/tex/generic/kvsetkeys/kvsetkeys.sty
INPUT /usr/local/texlive/2020/texmf-dist/tex/generic/kvsetkeys/kvsetkeys.sty
INPUT /usr/local/texlive/2020/texmf-dist/tex/generic/kvsetkeys/kvsetkeys.sty
INPUT /usr/local/texlive/2020/texmf-dist/tex/generic/kvsetkeys/kvsetkeys.sty
INPUT /usr/local/texlive/2020/texmf-dist/tex/generic/kvsetkeys/kvsetkeys.sty
INPUT /usr/local/texlive/2020/texmf-dist/tex/generic/kvsetkeys/kvsetkeys.sty
INPUT /usr/local/texlive/2020/texmf-dist/tex/latex/thmtools/thm-autoref.sty
INPUT /usr/local/texlive/2020/texmf-dist/tex/latex/thmtools/thm-autoref.sty
INPUT /usr/local/texlive/2020/texmf-dist/tex/latex/thmtools/thm-autoref.sty
INPUT /usr/local/texlive/2020/texmf-dist/tex/latex/thmtools/thm-autoref.sty
INPUT /usr/local/texlive/2020/texmf-dist/tex/latex/thmtools/thm-autoref.sty
INPUT /usr/local/texlive/2020/texmf-dist/tex/latex/thmtools/thm-autoref.sty
INPUT /usr/local/texlive/2020/texmf-dist/tex/latex/thmtools/thm-autoref.sty
INPUT /usr/local/texlive/2020/texmf-dist/tex/latex/thmtools/thm-autoref.sty
INPUT /usr/local/texlive/2020/texmf-dist/tex/latex/thmtools/thm-autoref.sty
INPUT /usr/local/texlive/2020/texmf-dist/tex/latex/thmtools/thm-autoref.sty
INPUT /usr/local/texlive/2020/texmf-dist/tex/latex/thmtools/aliasctr.sty
INPUT /usr/local/texlive/2020/texmf-dist/tex/latex/thmtools/aliasctr.sty
INPUT /usr/local/texlive/2020/texmf-dist/tex/latex/thmtools/aliasctr.sty
INPUT /usr/local/texlive/2020/texmf-dist/tex/latex/thmtools/aliasctr.sty
INPUT /usr/local/texlive/2020/texmf-dist/tex/latex/thmtools/aliasctr.sty
INPUT /usr/local/texlive/2020/texmf-dist/tex/latex/thmtools/aliasctr.sty
INPUT /usr/local/texlive/2020/texmf-dist/tex/latex/thmtools/aliasctr.sty
INPUT /usr/local/texlive/2020/texmf-dist/tex/latex/thmtools/aliasctr.sty
INPUT /usr/local/texlive/2020/texmf-dist/tex/latex/thmtools/aliasctr.sty
INPUT /usr/local/texlive/2020/texmf-dist/tex/latex/thmtools/aliasctr.sty
INPUT /usr/local/texlive/2020/texmf-dist/tex/latex/thmtools/thm-listof.sty
INPUT /usr/local/texlive/2020/texmf-dist/tex/latex/thmtools/thm-listof.sty
INPUT /usr/local/texlive/2020/texmf-dist/tex/latex/thmtools/thm-listof.sty
INPUT /usr/local/texlive/2020/texmf-dist/tex/latex/thmtools/thm-listof.sty
INPUT /usr/local/texlive/2020/texmf-dist/tex/latex/thmtools/thm-listof.sty
INPUT /usr/local/texlive/2020/texmf-dist/tex/latex/thmtools/thm-listof.sty
INPUT /usr/local/texlive/2020/texmf-dist/tex/latex/thmtools/thm-listof.sty
INPUT /usr/local/texlive/2020/texmf-dist/tex/latex/thmtools/thm-listof.sty
INPUT /usr/local/texlive/2020/texmf-dist/tex/latex/thmtools/thm-listof.sty
INPUT /usr/local/texlive/2020/texmf-dist/tex/latex/thmtools/thm-listof.sty
INPUT /usr/local/texlive/2020/texmf-dist/tex/latex/thmtools/thm-restate.sty
INPUT /usr/local/texlive/2020/texmf-dist/tex/latex/thmtools/thm-restate.sty
INPUT /usr/local/texlive/2020/texmf-dist/tex/latex/thmtools/thm-restate.sty
INPUT /usr/local/texlive/2020/texmf-dist/tex/latex/thmtools/thm-restate.sty
INPUT /usr/local/texlive/2020/texmf-dist/tex/latex/thmtools/thm-restate.sty
INPUT /usr/local/texlive/2020/texmf-dist/tex/latex/thmtools/thm-restate.sty
INPUT /usr/local/texlive/2020/texmf-dist/tex/latex/thmtools/thm-restate.sty
INPUT /usr/local/texlive/2020/texmf-dist/tex/latex/thmtools/thm-restate.sty
INPUT /usr/local/texlive/2020/texmf-dist/tex/latex/thmtools/thm-restate.sty
INPUT /usr/local/texlive/2020/texmf-dist/tex/latex/thmtools/thm-restate.sty
INPUT /usr/local/texlive/2020/texmf-dist/tex/latex/thmtools/thm-ntheorem.sty
INPUT /usr/local/texlive/2020/texmf-dist/tex/latex/thmtools/thm-ntheorem.sty
INPUT /usr/local/texlive/2020/texmf-dist/tex/latex/thmtools/thm-ntheorem.sty
INPUT /usr/local/texlive/2020/texmf-dist/tex/latex/thmtools/thm-ntheorem.sty
INPUT /usr/local/texlive/2020/texmf-dist/tex/latex/thmtools/thm-ntheorem.sty
INPUT /usr/local/texlive/2020/texmf-dist/tex/latex/thmtools/thm-ntheorem.sty
INPUT /usr/local/texlive/2020/texmf-dist/tex/latex/thmtools/thm-ntheorem.sty
INPUT /usr/local/texlive/2020/texmf-dist/tex/latex/thmtools/thm-ntheorem.sty
INPUT /usr/local/texlive/2020/texmf-dist/tex/latex/thmtools/thm-ntheorem.sty
INPUT /usr/local/texlive/2020/texmf-dist/tex/latex/thmtools/thm-ntheorem.sty
INPUT /usr/local/texlive/2020/texmf-dist/tex/latex/hyperref/hyperref.sty
INPUT /usr/local/texlive/2020/texmf-dist/tex/latex/hyperref/hyperref.sty
INPUT /usr/local/texlive/2020/texmf-dist/tex/latex/hyperref/hyperref.sty
INPUT /usr/local/texlive/2020/texmf-dist/tex/latex/hyperref/hyperref.sty
INPUT /usr/local/texlive/2020/texmf-dist/tex/latex/hyperref/hyperref.sty
INPUT /usr/local/texlive/2020/texmf-dist/tex/latex/hyperref/hyperref.sty
INPUT /usr/local/texlive/2020/texmf-dist/tex/latex/hyperref/hyperref.sty
INPUT /usr/local/texlive/2020/texmf-dist/tex/latex/hyperref/hyperref.sty
INPUT /usr/local/texlive/2020/texmf-dist/tex/latex/hyperref/hyperref.sty
INPUT /usr/local/texlive/2020/texmf-dist/tex/latex/hyperref/hyperref.sty
INPUT /usr/local/texlive/2020/texmf-dist/tex/generic/ltxcmds/ltxcmds.sty
INPUT /usr/local/texlive/2020/texmf-dist/tex/generic/ltxcmds/ltxcmds.sty
INPUT /usr/local/texlive/2020/texmf-dist/tex/generic/ltxcmds/ltxcmds.sty
INPUT /usr/local/texlive/2020/texmf-dist/tex/generic/ltxcmds/ltxcmds.sty
INPUT /usr/local/texlive/2020/texmf-dist/tex/generic/ltxcmds/ltxcmds.sty
INPUT /usr/local/texlive/2020/texmf-dist/tex/generic/ltxcmds/ltxcmds.sty
INPUT /usr/local/texlive/2020/texmf-dist/tex/generic/ltxcmds/ltxcmds.sty
INPUT /usr/local/texlive/2020/texmf-dist/tex/generic/ltxcmds/ltxcmds.sty
INPUT /usr/local/texlive/2020/texmf-dist/tex/generic/ltxcmds/ltxcmds.sty
INPUT /usr/local/texlive/2020/texmf-dist/tex/generic/ltxcmds/ltxcmds.sty
INPUT /usr/local/texlive/2020/texmf-dist/tex/generic/iftex/iftex.sty
INPUT /usr/local/texlive/2020/texmf-dist/tex/generic/iftex/iftex.sty
INPUT /usr/local/texlive/2020/texmf-dist/tex/generic/iftex/iftex.sty
INPUT /usr/local/texlive/2020/texmf-dist/tex/generic/iftex/iftex.sty
INPUT /usr/local/texlive/2020/texmf-dist/tex/generic/iftex/iftex.sty
INPUT /usr/local/texlive/2020/texmf-dist/tex/generic/iftex/iftex.sty
INPUT /usr/local/texlive/2020/texmf-dist/tex/generic/iftex/iftex.sty
INPUT /usr/local/texlive/2020/texmf-dist/tex/generic/iftex/iftex.sty
INPUT /usr/local/texlive/2020/texmf-dist/tex/generic/iftex/iftex.sty
INPUT /usr/local/texlive/2020/texmf-dist/tex/generic/iftex/iftex.sty
INPUT /usr/local/texlive/2020/texmf-dist/tex/generic/pdftexcmds/pdftexcmds.sty
INPUT /usr/local/texlive/2020/texmf-dist/tex/generic/pdftexcmds/pdftexcmds.sty
INPUT /usr/local/texlive/2020/texmf-dist/tex/generic/pdftexcmds/pdftexcmds.sty
INPUT /usr/local/texlive/2020/texmf-dist/tex/generic/pdftexcmds/pdftexcmds.sty
INPUT /usr/local/texlive/2020/texmf-dist/tex/generic/pdftexcmds/pdftexcmds.sty
INPUT /usr/local/texlive/2020/texmf-dist/tex/generic/pdftexcmds/pdftexcmds.sty
INPUT /usr/local/texlive/2020/texmf-dist/tex/generic/pdftexcmds/pdftexcmds.sty
INPUT /usr/local/texlive/2020/texmf-dist/tex/generic/pdftexcmds/pdftexcmds.sty
INPUT /usr/local/texlive/2020/texmf-dist/tex/generic/pdftexcmds/pdftexcmds.sty
INPUT /usr/local/texlive/2020/texmf-dist/tex/generic/pdftexcmds/pdftexcmds.sty
INPUT /usr/local/texlive/2020/texmf-dist/tex/generic/infwarerr/infwarerr.sty
INPUT /usr/local/texlive/2020/texmf-dist/tex/generic/infwarerr/infwarerr.sty
INPUT /usr/local/texlive/2020/texmf-dist/tex/generic/infwarerr/infwarerr.sty
INPUT /usr/local/texlive/2020/texmf-dist/tex/generic/infwarerr/infwarerr.sty
INPUT /usr/local/texlive/2020/texmf-dist/tex/generic/infwarerr/infwarerr.sty
INPUT /usr/local/texlive/2020/texmf-dist/tex/generic/infwarerr/infwarerr.sty
INPUT /usr/local/texlive/2020/texmf-dist/tex/generic/infwarerr/infwarerr.sty
INPUT /usr/local/texlive/2020/texmf-dist/tex/generic/infwarerr/infwarerr.sty
INPUT /usr/local/texlive/2020/texmf-dist/tex/generic/infwarerr/infwarerr.sty
INPUT /usr/local/texlive/2020/texmf-dist/tex/generic/infwarerr/infwarerr.sty
INPUT /usr/local/texlive/2020/texmf-dist/tex/generic/kvdefinekeys/kvdefinekeys.sty
INPUT /usr/local/texlive/2020/texmf-dist/tex/generic/kvdefinekeys/kvdefinekeys.sty
INPUT /usr/local/texlive/2020/texmf-dist/tex/generic/kvdefinekeys/kvdefinekeys.sty
INPUT /usr/local/texlive/2020/texmf-dist/tex/generic/kvdefinekeys/kvdefinekeys.sty
INPUT /usr/local/texlive/2020/texmf-dist/tex/generic/kvdefinekeys/kvdefinekeys.sty
INPUT /usr/local/texlive/2020/texmf-dist/tex/generic/kvdefinekeys/kvdefinekeys.sty
INPUT /usr/local/texlive/2020/texmf-dist/tex/generic/kvdefinekeys/kvdefinekeys.sty
INPUT /usr/local/texlive/2020/texmf-dist/tex/generic/kvdefinekeys/kvdefinekeys.sty
INPUT /usr/local/texlive/2020/texmf-dist/tex/generic/kvdefinekeys/kvdefinekeys.sty
INPUT /usr/local/texlive/2020/texmf-dist/tex/generic/kvdefinekeys/kvdefinekeys.sty
INPUT /usr/local/texlive/2020/texmf-dist/tex/generic/pdfescape/pdfescape.sty
INPUT /usr/local/texlive/2020/texmf-dist/tex/generic/pdfescape/pdfescape.sty
INPUT /usr/local/texlive/2020/texmf-dist/tex/generic/pdfescape/pdfescape.sty
INPUT /usr/local/texlive/2020/texmf-dist/tex/generic/pdfescape/pdfescape.sty
INPUT /usr/local/texlive/2020/texmf-dist/tex/generic/pdfescape/pdfescape.sty
INPUT /usr/local/texlive/2020/texmf-dist/tex/generic/pdfescape/pdfescape.sty
INPUT /usr/local/texlive/2020/texmf-dist/tex/generic/pdfescape/pdfescape.sty
INPUT /usr/local/texlive/2020/texmf-dist/tex/generic/pdfescape/pdfescape.sty
INPUT /usr/local/texlive/2020/texmf-dist/tex/generic/pdfescape/pdfescape.sty
INPUT /usr/local/texlive/2020/texmf-dist/tex/generic/pdfescape/pdfescape.sty
INPUT /usr/local/texlive/2020/texmf-dist/tex/latex/hycolor/hycolor.sty
INPUT /usr/local/texlive/2020/texmf-dist/tex/latex/hycolor/hycolor.sty
INPUT /usr/local/texlive/2020/texmf-dist/tex/latex/hycolor/hycolor.sty
INPUT /usr/local/texlive/2020/texmf-dist/tex/latex/hycolor/hycolor.sty
INPUT /usr/local/texlive/2020/texmf-dist/tex/latex/hycolor/hycolor.sty
INPUT /usr/local/texlive/2020/texmf-dist/tex/latex/hycolor/hycolor.sty
INPUT /usr/local/texlive/2020/texmf-dist/tex/latex/hycolor/hycolor.sty
INPUT /usr/local/texlive/2020/texmf-dist/tex/latex/hycolor/hycolor.sty
INPUT /usr/local/texlive/2020/texmf-dist/tex/latex/hycolor/hycolor.sty
INPUT /usr/local/texlive/2020/texmf-dist/tex/latex/hycolor/hycolor.sty
INPUT /usr/local/texlive/2020/texmf-dist/tex/latex/letltxmacro/letltxmacro.sty
INPUT /usr/local/texlive/2020/texmf-dist/tex/latex/letltxmacro/letltxmacro.sty
INPUT /usr/local/texlive/2020/texmf-dist/tex/latex/letltxmacro/letltxmacro.sty
INPUT /usr/local/texlive/2020/texmf-dist/tex/latex/letltxmacro/letltxmacro.sty
INPUT /usr/local/texlive/2020/texmf-dist/tex/latex/letltxmacro/letltxmacro.sty
INPUT /usr/local/texlive/2020/texmf-dist/tex/latex/letltxmacro/letltxmacro.sty
INPUT /usr/local/texlive/2020/texmf-dist/tex/latex/letltxmacro/letltxmacro.sty
INPUT /usr/local/texlive/2020/texmf-dist/tex/latex/letltxmacro/letltxmacro.sty
INPUT /usr/local/texlive/2020/texmf-dist/tex/latex/letltxmacro/letltxmacro.sty
INPUT /usr/local/texlive/2020/texmf-dist/tex/latex/letltxmacro/letltxmacro.sty
INPUT /usr/local/texlive/2020/texmf-dist/tex/latex/auxhook/auxhook.sty
INPUT /usr/local/texlive/2020/texmf-dist/tex/latex/auxhook/auxhook.sty
INPUT /usr/local/texlive/2020/texmf-dist/tex/latex/auxhook/auxhook.sty
INPUT /usr/local/texlive/2020/texmf-dist/tex/latex/auxhook/auxhook.sty
INPUT /usr/local/texlive/2020/texmf-dist/tex/latex/auxhook/auxhook.sty
INPUT /usr/local/texlive/2020/texmf-dist/tex/latex/auxhook/auxhook.sty
INPUT /usr/local/texlive/2020/texmf-dist/tex/latex/auxhook/auxhook.sty
INPUT /usr/local/texlive/2020/texmf-dist/tex/latex/auxhook/auxhook.sty
INPUT /usr/local/texlive/2020/texmf-dist/tex/latex/auxhook/auxhook.sty
INPUT /usr/local/texlive/2020/texmf-dist/tex/latex/auxhook/auxhook.sty
INPUT /usr/local/texlive/2020/texmf-dist/tex/latex/kvoptions/kvoptions.sty
INPUT /usr/local/texlive/2020/texmf-dist/tex/latex/kvoptions/kvoptions.sty
INPUT /usr/local/texlive/2020/texmf-dist/tex/latex/kvoptions/kvoptions.sty
INPUT /usr/local/texlive/2020/texmf-dist/tex/latex/kvoptions/kvoptions.sty
INPUT /usr/local/texlive/2020/texmf-dist/tex/latex/kvoptions/kvoptions.sty
INPUT /usr/local/texlive/2020/texmf-dist/tex/latex/kvoptions/kvoptions.sty
INPUT /usr/local/texlive/2020/texmf-dist/tex/latex/kvoptions/kvoptions.sty
INPUT /usr/local/texlive/2020/texmf-dist/tex/latex/kvoptions/kvoptions.sty
INPUT /usr/local/texlive/2020/texmf-dist/tex/latex/kvoptions/kvoptions.sty
INPUT /usr/local/texlive/2020/texmf-dist/tex/latex/kvoptions/kvoptions.sty
INPUT /usr/local/texlive/2020/texmf-dist/tex/latex/hyperref/pd1enc.def
INPUT /usr/local/texlive/2020/texmf-dist/tex/latex/hyperref/pd1enc.def
INPUT /usr/local/texlive/2020/texmf-dist/tex/latex/hyperref/pd1enc.def
INPUT /usr/local/texlive/2020/texmf-dist/tex/latex/hyperref/pd1enc.def
INPUT /usr/local/texlive/2020/texmf-dist/tex/generic/intcalc/intcalc.sty
INPUT /usr/local/texlive/2020/texmf-dist/tex/generic/intcalc/intcalc.sty
INPUT /usr/local/texlive/2020/texmf-dist/tex/generic/intcalc/intcalc.sty
INPUT /usr/local/texlive/2020/texmf-dist/tex/generic/intcalc/intcalc.sty
INPUT /usr/local/texlive/2020/texmf-dist/tex/generic/intcalc/intcalc.sty
INPUT /usr/local/texlive/2020/texmf-dist/tex/generic/intcalc/intcalc.sty
INPUT /usr/local/texlive/2020/texmf-dist/tex/generic/intcalc/intcalc.sty
INPUT /usr/local/texlive/2020/texmf-dist/tex/generic/intcalc/intcalc.sty
INPUT /usr/local/texlive/2020/texmf-dist/tex/generic/intcalc/intcalc.sty
INPUT /usr/local/texlive/2020/texmf-dist/tex/generic/intcalc/intcalc.sty
INPUT /usr/local/texlive/2020/texmf-dist/tex/generic/etexcmds/etexcmds.sty
INPUT /usr/local/texlive/2020/texmf-dist/tex/generic/etexcmds/etexcmds.sty
INPUT /usr/local/texlive/2020/texmf-dist/tex/generic/etexcmds/etexcmds.sty
INPUT /usr/local/texlive/2020/texmf-dist/tex/generic/etexcmds/etexcmds.sty
INPUT /usr/local/texlive/2020/texmf-dist/tex/generic/etexcmds/etexcmds.sty
INPUT /usr/local/texlive/2020/texmf-dist/tex/generic/etexcmds/etexcmds.sty
INPUT /usr/local/texlive/2020/texmf-dist/tex/generic/etexcmds/etexcmds.sty
INPUT /usr/local/texlive/2020/texmf-dist/tex/generic/etexcmds/etexcmds.sty
INPUT /usr/local/texlive/2020/texmf-dist/tex/generic/etexcmds/etexcmds.sty
INPUT /usr/local/texlive/2020/texmf-dist/tex/generic/etexcmds/etexcmds.sty
INPUT /usr/local/texlive/2020/texmf-dist/tex/latex/url/url.sty
INPUT /usr/local/texlive/2020/texmf-dist/tex/latex/url/url.sty
INPUT /usr/local/texlive/2020/texmf-dist/tex/latex/url/url.sty
INPUT /usr/local/texlive/2020/texmf-dist/tex/latex/url/url.sty
INPUT /usr/local/texlive/2020/texmf-dist/tex/latex/url/url.sty
INPUT /usr/local/texlive/2020/texmf-dist/tex/latex/url/url.sty
INPUT /usr/local/texlive/2020/texmf-dist/tex/latex/url/url.sty
INPUT /usr/local/texlive/2020/texmf-dist/tex/latex/url/url.sty
INPUT /usr/local/texlive/2020/texmf-dist/tex/latex/url/url.sty
INPUT /usr/local/texlive/2020/texmf-dist/tex/latex/url/url.sty
INPUT /usr/local/texlive/2020/texmf-dist/tex/generic/bitset/bitset.sty
INPUT /usr/local/texlive/2020/texmf-dist/tex/generic/bitset/bitset.sty
INPUT /usr/local/texlive/2020/texmf-dist/tex/generic/bitset/bitset.sty
INPUT /usr/local/texlive/2020/texmf-dist/tex/generic/bitset/bitset.sty
INPUT /usr/local/texlive/2020/texmf-dist/tex/generic/bitset/bitset.sty
INPUT /usr/local/texlive/2020/texmf-dist/tex/generic/bitset/bitset.sty
INPUT /usr/local/texlive/2020/texmf-dist/tex/generic/bitset/bitset.sty
INPUT /usr/local/texlive/2020/texmf-dist/tex/generic/bitset/bitset.sty
INPUT /usr/local/texlive/2020/texmf-dist/tex/generic/bitset/bitset.sty
INPUT /usr/local/texlive/2020/texmf-dist/tex/generic/bitset/bitset.sty
INPUT /usr/local/texlive/2020/texmf-dist/tex/generic/bigintcalc/bigintcalc.sty
INPUT /usr/local/texlive/2020/texmf-dist/tex/generic/bigintcalc/bigintcalc.sty
INPUT /usr/local/texlive/2020/texmf-dist/tex/generic/bigintcalc/bigintcalc.sty
INPUT /usr/local/texlive/2020/texmf-dist/tex/generic/bigintcalc/bigintcalc.sty
INPUT /usr/local/texlive/2020/texmf-dist/tex/generic/bigintcalc/bigintcalc.sty
INPUT /usr/local/texlive/2020/texmf-dist/tex/generic/bigintcalc/bigintcalc.sty
INPUT /usr/local/texlive/2020/texmf-dist/tex/generic/bigintcalc/bigintcalc.sty
INPUT /usr/local/texlive/2020/texmf-dist/tex/generic/bigintcalc/bigintcalc.sty
INPUT /usr/local/texlive/2020/texmf-dist/tex/generic/bigintcalc/bigintcalc.sty
INPUT /usr/local/texlive/2020/texmf-dist/tex/generic/bigintcalc/bigintcalc.sty
INPUT /usr/local/texlive/2020/texmf-dist/tex/generic/atbegshi/atbegshi.sty
INPUT /usr/local/texlive/2020/texmf-dist/tex/generic/atbegshi/atbegshi.sty
INPUT /usr/local/texlive/2020/texmf-dist/tex/latex/base/atbegshi-ltx.sty
INPUT /usr/local/texlive/2020/texmf-dist/tex/generic/atbegshi/atbegshi.sty
INPUT /usr/local/texlive/2020/texmf-dist/tex/generic/atbegshi/atbegshi.sty
INPUT /usr/local/texlive/2020/texmf-dist/tex/latex/base/atbegshi-ltx.sty
INPUT /usr/local/texlive/2020/texmf-dist/tex/generic/atbegshi/atbegshi.sty
INPUT /usr/local/texlive/2020/texmf-dist/tex/latex/base/atbegshi-ltx.sty
INPUT /usr/local/texlive/2020/texmf-dist/tex/latex/base/atbegshi-ltx.sty
INPUT /usr/local/texlive/2020/texmf-dist/tex/generic/atbegshi/atbegshi.sty
INPUT /usr/local/texlive/2020/texmf-dist/tex/generic/atbegshi/atbegshi.sty
INPUT /usr/local/texlive/2020/texmf-dist/tex/latex/base/atbegshi-ltx.sty
INPUT /usr/local/texlive/2020/texmf-dist/tex/latex/base/atbegshi-ltx.sty
INPUT /usr/local/texlive/2020/texmf-dist/tex/generic/atbegshi/atbegshi.sty
INPUT /usr/local/texlive/2020/texmf-dist/tex/latex/base/atbegshi-ltx.sty
INPUT /usr/local/texlive/2020/texmf-dist/tex/latex/hyperref/hpdftex.def
INPUT /usr/local/texlive/2020/texmf-dist/tex/latex/hyperref/hpdftex.def
INPUT /usr/local/texlive/2020/texmf-dist/tex/latex/hyperref/hpdftex.def
INPUT /usr/local/texlive/2020/texmf-dist/tex/latex/hyperref/hpdftex.def
INPUT /usr/local/texlive/2020/texmf-dist/tex/latex/atveryend/atveryend.sty
INPUT /usr/local/texlive/2020/texmf-dist/tex/latex/atveryend/atveryend.sty
INPUT /usr/local/texlive/2020/texmf-dist/tex/latex/base/atveryend-ltx.sty
INPUT /usr/local/texlive/2020/texmf-dist/tex/latex/atveryend/atveryend.sty
INPUT /usr/local/texlive/2020/texmf-dist/tex/latex/atveryend/atveryend.sty
INPUT /usr/local/texlive/2020/texmf-dist/tex/latex/base/atveryend-ltx.sty
INPUT /usr/local/texlive/2020/texmf-dist/tex/latex/atveryend/atveryend.sty
INPUT /usr/local/texlive/2020/texmf-dist/tex/latex/base/atveryend-ltx.sty
INPUT /usr/local/texlive/2020/texmf-dist/tex/latex/base/atveryend-ltx.sty
INPUT /usr/local/texlive/2020/texmf-dist/tex/latex/atveryend/atveryend.sty
INPUT /usr/local/texlive/2020/texmf-dist/tex/latex/atveryend/atveryend.sty
INPUT /usr/local/texlive/2020/texmf-dist/tex/latex/base/atveryend-ltx.sty
INPUT /usr/local/texlive/2020/texmf-dist/tex/latex/base/atveryend-ltx.sty
INPUT /usr/local/texlive/2020/texmf-dist/tex/latex/atveryend/atveryend.sty
INPUT /usr/local/texlive/2020/texmf-dist/tex/latex/base/atveryend-ltx.sty
INPUT /usr/local/texlive/2020/texmf-dist/tex/latex/rerunfilecheck/rerunfilecheck.sty
INPUT /usr/local/texlive/2020/texmf-dist/tex/latex/rerunfilecheck/rerunfilecheck.sty
INPUT /usr/local/texlive/2020/texmf-dist/tex/latex/rerunfilecheck/rerunfilecheck.sty
INPUT /usr/local/texlive/2020/texmf-dist/tex/latex/rerunfilecheck/rerunfilecheck.sty
INPUT /usr/local/texlive/2020/texmf-dist/tex/latex/rerunfilecheck/rerunfilecheck.sty
INPUT /usr/local/texlive/2020/texmf-dist/tex/latex/rerunfilecheck/rerunfilecheck.sty
INPUT /usr/local/texlive/2020/texmf-dist/tex/latex/rerunfilecheck/rerunfilecheck.sty
INPUT /usr/local/texlive/2020/texmf-dist/tex/latex/rerunfilecheck/rerunfilecheck.sty
INPUT /usr/local/texlive/2020/texmf-dist/tex/latex/rerunfilecheck/rerunfilecheck.sty
INPUT /usr/local/texlive/2020/texmf-dist/tex/latex/rerunfilecheck/rerunfilecheck.sty
INPUT /usr/local/texlive/2020/texmf-dist/tex/generic/uniquecounter/uniquecounter.sty
INPUT /usr/local/texlive/2020/texmf-dist/tex/generic/uniquecounter/uniquecounter.sty
INPUT /usr/local/texlive/2020/texmf-dist/tex/generic/uniquecounter/uniquecounter.sty
INPUT /usr/local/texlive/2020/texmf-dist/tex/generic/uniquecounter/uniquecounter.sty
INPUT /usr/local/texlive/2020/texmf-dist/tex/generic/uniquecounter/uniquecounter.sty
INPUT /usr/local/texlive/2020/texmf-dist/tex/generic/uniquecounter/uniquecounter.sty
INPUT /usr/local/texlive/2020/texmf-dist/tex/generic/uniquecounter/uniquecounter.sty
INPUT /usr/local/texlive/2020/texmf-dist/tex/generic/uniquecounter/uniquecounter.sty
INPUT /usr/local/texlive/2020/texmf-dist/tex/generic/uniquecounter/uniquecounter.sty
INPUT /usr/local/texlive/2020/texmf-dist/tex/generic/uniquecounter/uniquecounter.sty
INPUT /usr/local/texlive/2020/texmf-dist/tex/latex/hyperref/nameref.sty
INPUT /usr/local/texlive/2020/texmf-dist/tex/latex/hyperref/nameref.sty
INPUT /usr/local/texlive/2020/texmf-dist/tex/latex/hyperref/nameref.sty
INPUT /usr/local/texlive/2020/texmf-dist/tex/latex/hyperref/nameref.sty
INPUT /usr/local/texlive/2020/texmf-dist/tex/latex/hyperref/nameref.sty
INPUT /usr/local/texlive/2020/texmf-dist/tex/latex/hyperref/nameref.sty
INPUT /usr/local/texlive/2020/texmf-dist/tex/latex/hyperref/nameref.sty
INPUT /usr/local/texlive/2020/texmf-dist/tex/latex/hyperref/nameref.sty
INPUT /usr/local/texlive/2020/texmf-dist/tex/latex/hyperref/nameref.sty
INPUT /usr/local/texlive/2020/texmf-dist/tex/latex/hyperref/nameref.sty
INPUT /usr/local/texlive/2020/texmf-dist/tex/latex/refcount/refcount.sty
INPUT /usr/local/texlive/2020/texmf-dist/tex/latex/refcount/refcount.sty
INPUT /usr/local/texlive/2020/texmf-dist/tex/latex/refcount/refcount.sty
INPUT /usr/local/texlive/2020/texmf-dist/tex/latex/refcount/refcount.sty
INPUT /usr/local/texlive/2020/texmf-dist/tex/latex/refcount/refcount.sty
INPUT /usr/local/texlive/2020/texmf-dist/tex/latex/refcount/refcount.sty
INPUT /usr/local/texlive/2020/texmf-dist/tex/latex/refcount/refcount.sty
INPUT /usr/local/texlive/2020/texmf-dist/tex/latex/refcount/refcount.sty
INPUT /usr/local/texlive/2020/texmf-dist/tex/latex/refcount/refcount.sty
INPUT /usr/local/texlive/2020/texmf-dist/tex/latex/refcount/refcount.sty
INPUT /usr/local/texlive/2020/texmf-dist/tex/generic/gettitlestring/gettitlestring.sty
INPUT /usr/local/texlive/2020/texmf-dist/tex/generic/gettitlestring/gettitlestring.sty
INPUT /usr/local/texlive/2020/texmf-dist/tex/generic/gettitlestring/gettitlestring.sty
INPUT /usr/local/texlive/2020/texmf-dist/tex/generic/gettitlestring/gettitlestring.sty
INPUT /usr/local/texlive/2020/texmf-dist/tex/generic/gettitlestring/gettitlestring.sty
INPUT /usr/local/texlive/2020/texmf-dist/tex/generic/gettitlestring/gettitlestring.sty
INPUT /usr/local/texlive/2020/texmf-dist/tex/generic/gettitlestring/gettitlestring.sty
INPUT /usr/local/texlive/2020/texmf-dist/tex/generic/gettitlestring/gettitlestring.sty
INPUT /usr/local/texlive/2020/texmf-dist/tex/generic/gettitlestring/gettitlestring.sty
INPUT /usr/local/texlive/2020/texmf-dist/tex/generic/gettitlestring/gettitlestring.sty
INPUT /usr/local/texlive/2020/texmf-dist/tex/latex/cleveref/cleveref.sty
INPUT /usr/local/texlive/2020/texmf-dist/tex/latex/cleveref/cleveref.sty
INPUT /usr/local/texlive/2020/texmf-dist/tex/latex/cleveref/cleveref.sty
INPUT /usr/local/texlive/2020/texmf-dist/tex/latex/cleveref/cleveref.sty
INPUT /usr/local/texlive/2020/texmf-dist/tex/latex/cleveref/cleveref.sty
INPUT /usr/local/texlive/2020/texmf-dist/tex/latex/cleveref/cleveref.sty
INPUT /usr/local/texlive/2020/texmf-dist/tex/latex/cleveref/cleveref.sty
INPUT /usr/local/texlive/2020/texmf-dist/tex/latex/cleveref/cleveref.sty
INPUT /usr/local/texlive/2020/texmf-dist/tex/latex/cleveref/cleveref.sty
INPUT /usr/local/texlive/2020/texmf-dist/tex/latex/cleveref/cleveref.sty
INPUT /usr/local/texlive/2020/texmf-dist/tex/latex/geometry/geometry.sty
INPUT /usr/local/texlive/2020/texmf-dist/tex/latex/geometry/geometry.sty
INPUT /usr/local/texlive/2020/texmf-dist/tex/latex/geometry/geometry.sty
INPUT /usr/local/texlive/2020/texmf-dist/tex/latex/geometry/geometry.sty
INPUT /usr/local/texlive/2020/texmf-dist/tex/latex/geometry/geometry.sty
INPUT /usr/local/texlive/2020/texmf-dist/tex/latex/geometry/geometry.sty
INPUT /usr/local/texlive/2020/texmf-dist/tex/latex/geometry/geometry.sty
INPUT /usr/local/texlive/2020/texmf-dist/tex/latex/geometry/geometry.sty
INPUT /usr/local/texlive/2020/texmf-dist/tex/latex/geometry/geometry.sty
INPUT /usr/local/texlive/2020/texmf-dist/tex/latex/geometry/geometry.sty
INPUT /usr/local/texlive/2020/texmf-dist/tex/generic/iftex/ifvtex.sty
INPUT /usr/local/texlive/2020/texmf-dist/tex/generic/iftex/ifvtex.sty
INPUT /usr/local/texlive/2020/texmf-dist/tex/generic/iftex/ifvtex.sty
INPUT /usr/local/texlive/2020/texmf-dist/tex/generic/iftex/ifvtex.sty
INPUT /usr/local/texlive/2020/texmf-dist/tex/generic/iftex/ifvtex.sty
INPUT /usr/local/texlive/2020/texmf-dist/tex/generic/iftex/ifvtex.sty
INPUT /usr/local/texlive/2020/texmf-dist/tex/generic/iftex/ifvtex.sty
INPUT /usr/local/texlive/2020/texmf-dist/tex/generic/iftex/ifvtex.sty
INPUT /usr/local/texlive/2020/texmf-dist/tex/generic/iftex/ifvtex.sty
INPUT /usr/local/texlive/2020/texmf-dist/tex/generic/iftex/ifvtex.sty
INPUT /usr/local/texlive/2020/texmf-dist/tex/latex/algorithmicx/algorithmicx.sty
INPUT /usr/local/texlive/2020/texmf-dist/tex/latex/algorithmicx/algorithmicx.sty
INPUT /usr/local/texlive/2020/texmf-dist/tex/latex/algorithmicx/algorithmicx.sty
INPUT /usr/local/texlive/2020/texmf-dist/tex/latex/algorithmicx/algorithmicx.sty
INPUT /usr/local/texlive/2020/texmf-dist/tex/latex/algorithmicx/algorithmicx.sty
INPUT /usr/local/texlive/2020/texmf-dist/tex/latex/algorithmicx/algorithmicx.sty
INPUT /usr/local/texlive/2020/texmf-dist/tex/latex/algorithmicx/algorithmicx.sty
INPUT /usr/local/texlive/2020/texmf-dist/tex/latex/algorithmicx/algorithmicx.sty
INPUT /usr/local/texlive/2020/texmf-dist/tex/latex/algorithmicx/algorithmicx.sty
INPUT /usr/local/texlive/2020/texmf-dist/tex/latex/algorithmicx/algorithmicx.sty
INPUT /usr/local/texlive/2020/texmf-dist/tex/latex/algorithmicx/algpseudocode.sty
INPUT /usr/local/texlive/2020/texmf-dist/tex/latex/algorithmicx/algpseudocode.sty
INPUT /usr/local/texlive/2020/texmf-dist/tex/latex/algorithmicx/algpseudocode.sty
INPUT /usr/local/texlive/2020/texmf-dist/tex/latex/algorithmicx/algpseudocode.sty
INPUT /usr/local/texlive/2020/texmf-dist/tex/latex/algorithmicx/algpseudocode.sty
INPUT /usr/local/texlive/2020/texmf-dist/tex/latex/algorithmicx/algpseudocode.sty
INPUT /usr/local/texlive/2020/texmf-dist/tex/latex/algorithmicx/algpseudocode.sty
INPUT /usr/local/texlive/2020/texmf-dist/tex/latex/algorithmicx/algpseudocode.sty
INPUT /usr/local/texlive/2020/texmf-dist/tex/latex/algorithmicx/algpseudocode.sty
INPUT /usr/local/texlive/2020/texmf-dist/tex/latex/algorithmicx/algpseudocode.sty
INPUT /usr/local/texlive/2020/texmf-dist/tex/latex/algorithms/algorithm.sty
INPUT /usr/local/texlive/2020/texmf-dist/tex/latex/algorithms/algorithm.sty
INPUT /usr/local/texlive/2020/texmf-dist/tex/latex/algorithms/algorithm.sty
INPUT /usr/local/texlive/2020/texmf-dist/tex/latex/algorithms/algorithm.sty
INPUT /usr/local/texlive/2020/texmf-dist/tex/latex/algorithms/algorithm.sty
INPUT /usr/local/texlive/2020/texmf-dist/tex/latex/algorithms/algorithm.sty
INPUT /usr/local/texlive/2020/texmf-dist/tex/latex/algorithms/algorithm.sty
INPUT /usr/local/texlive/2020/texmf-dist/tex/latex/algorithms/algorithm.sty
INPUT /usr/local/texlive/2020/texmf-dist/tex/latex/algorithms/algorithm.sty
INPUT /usr/local/texlive/2020/texmf-dist/tex/latex/algorithms/algorithm.sty
INPUT /usr/local/texlive/2020/texmf-dist/tex/latex/float/float.sty
INPUT /usr/local/texlive/2020/texmf-dist/tex/latex/float/float.sty
INPUT /usr/local/texlive/2020/texmf-dist/tex/latex/float/float.sty
INPUT /usr/local/texlive/2020/texmf-dist/tex/latex/float/float.sty
INPUT /usr/local/texlive/2020/texmf-dist/tex/latex/float/float.sty
INPUT /usr/local/texlive/2020/texmf-dist/tex/latex/float/float.sty
INPUT /usr/local/texlive/2020/texmf-dist/tex/latex/float/float.sty
INPUT /usr/local/texlive/2020/texmf-dist/tex/latex/float/float.sty
INPUT /usr/local/texlive/2020/texmf-dist/tex/latex/float/float.sty
INPUT /usr/local/texlive/2020/texmf-dist/tex/latex/float/float.sty
INPUT /usr/local/texlive/2020/texmf-dist/tex/latex/l3packages/xfrac/xfrac.sty
INPUT /usr/local/texlive/2020/texmf-dist/tex/latex/l3packages/xfrac/xfrac.sty
INPUT /usr/local/texlive/2020/texmf-dist/tex/latex/l3packages/xfrac/xfrac.sty
INPUT /usr/local/texlive/2020/texmf-dist/tex/latex/l3packages/xfrac/xfrac.sty
INPUT /usr/local/texlive/2020/texmf-dist/tex/latex/l3packages/xfrac/xfrac.sty
INPUT /usr/local/texlive/2020/texmf-dist/tex/latex/l3packages/xfrac/xfrac.sty
INPUT /usr/local/texlive/2020/texmf-dist/tex/latex/l3packages/xfrac/xfrac.sty
INPUT /usr/local/texlive/2020/texmf-dist/tex/latex/l3packages/xfrac/xfrac.sty
INPUT /usr/local/texlive/2020/texmf-dist/tex/latex/l3packages/xfrac/xfrac.sty
INPUT /usr/local/texlive/2020/texmf-dist/tex/latex/l3packages/xfrac/xfrac.sty
INPUT /usr/local/texlive/2020/texmf-dist/tex/latex/l3kernel/expl3.sty
INPUT /usr/local/texlive/2020/texmf-dist/tex/latex/l3kernel/expl3.sty
INPUT /usr/local/texlive/2020/texmf-dist/tex/latex/l3kernel/expl3.sty
INPUT /usr/local/texlive/2020/texmf-dist/tex/latex/l3kernel/expl3.sty
INPUT /usr/local/texlive/2020/texmf-dist/tex/latex/l3kernel/expl3.sty
INPUT /usr/local/texlive/2020/texmf-dist/tex/latex/l3kernel/expl3.sty
INPUT /usr/local/texlive/2020/texmf-dist/tex/latex/l3kernel/expl3.sty
INPUT /usr/local/texlive/2020/texmf-dist/tex/latex/l3kernel/expl3.sty
INPUT /usr/local/texlive/2020/texmf-dist/tex/latex/l3kernel/expl3.sty
INPUT /usr/local/texlive/2020/texmf-dist/tex/latex/l3kernel/expl3.sty
INPUT /usr/local/texlive/2020/texmf-dist/tex/latex/l3backend/l3backend-pdftex.def
INPUT /usr/local/texlive/2020/texmf-dist/tex/latex/l3backend/l3backend-pdftex.def
INPUT /usr/local/texlive/2020/texmf-dist/tex/latex/l3backend/l3backend-pdftex.def
INPUT /usr/local/texlive/2020/texmf-dist/tex/latex/l3backend/l3backend-pdftex.def
INPUT /usr/local/texlive/2020/texmf-dist/tex/latex/l3backend/l3backend-pdftex.def
INPUT /usr/local/texlive/2020/texmf-dist/tex/latex/l3backend/l3backend-pdftex.def
INPUT /usr/local/texlive/2020/texmf-dist/tex/latex/l3backend/l3backend-pdftex.def
INPUT /usr/local/texlive/2020/texmf-dist/tex/latex/l3backend/l3backend-pdftex.def
INPUT /usr/local/texlive/2020/texmf-dist/tex/latex/l3backend/l3backend-pdftex.def
INPUT /usr/local/texlive/2020/texmf-dist/tex/latex/l3backend/l3backend-pdftex.def
INPUT /usr/local/texlive/2020/texmf-dist/tex/latex/graphics/graphicx.sty
INPUT /usr/local/texlive/2020/texmf-dist/tex/latex/graphics/graphicx.sty
INPUT /usr/local/texlive/2020/texmf-dist/tex/latex/graphics/graphicx.sty
INPUT /usr/local/texlive/2020/texmf-dist/tex/latex/graphics/graphicx.sty
INPUT /usr/local/texlive/2020/texmf-dist/tex/latex/graphics/graphicx.sty
INPUT /usr/local/texlive/2020/texmf-dist/tex/latex/graphics/graphicx.sty
INPUT /usr/local/texlive/2020/texmf-dist/tex/latex/graphics/graphicx.sty
INPUT /usr/local/texlive/2020/texmf-dist/tex/latex/graphics/graphicx.sty
INPUT /usr/local/texlive/2020/texmf-dist/tex/latex/graphics/graphicx.sty
INPUT /usr/local/texlive/2020/texmf-dist/tex/latex/graphics/graphicx.sty
INPUT /usr/local/texlive/2020/texmf-dist/tex/latex/graphics/graphics.sty
INPUT /usr/local/texlive/2020/texmf-dist/tex/latex/graphics/graphics.sty
INPUT /usr/local/texlive/2020/texmf-dist/tex/latex/graphics/graphics.sty
INPUT /usr/local/texlive/2020/texmf-dist/tex/latex/graphics/graphics.sty
INPUT /usr/local/texlive/2020/texmf-dist/tex/latex/graphics/graphics.sty
INPUT /usr/local/texlive/2020/texmf-dist/tex/latex/graphics/graphics.sty
INPUT /usr/local/texlive/2020/texmf-dist/tex/latex/graphics/graphics.sty
INPUT /usr/local/texlive/2020/texmf-dist/tex/latex/graphics/graphics.sty
INPUT /usr/local/texlive/2020/texmf-dist/tex/latex/graphics/graphics.sty
INPUT /usr/local/texlive/2020/texmf-dist/tex/latex/graphics/graphics.sty
INPUT /usr/local/texlive/2020/texmf-dist/tex/latex/graphics/trig.sty
INPUT /usr/local/texlive/2020/texmf-dist/tex/latex/graphics/trig.sty
INPUT /usr/local/texlive/2020/texmf-dist/tex/latex/graphics/trig.sty
INPUT /usr/local/texlive/2020/texmf-dist/tex/latex/graphics/trig.sty
INPUT /usr/local/texlive/2020/texmf-dist/tex/latex/graphics/trig.sty
INPUT /usr/local/texlive/2020/texmf-dist/tex/latex/graphics/trig.sty
INPUT /usr/local/texlive/2020/texmf-dist/tex/latex/graphics/trig.sty
INPUT /usr/local/texlive/2020/texmf-dist/tex/latex/graphics/trig.sty
INPUT /usr/local/texlive/2020/texmf-dist/tex/latex/graphics/trig.sty
INPUT /usr/local/texlive/2020/texmf-dist/tex/latex/graphics/trig.sty
INPUT /usr/local/texlive/2020/texmf-dist/tex/latex/graphics-cfg/graphics.cfg
INPUT /usr/local/texlive/2020/texmf-dist/tex/latex/graphics-cfg/graphics.cfg
INPUT /usr/local/texlive/2020/texmf-dist/tex/latex/graphics-cfg/graphics.cfg
INPUT /usr/local/texlive/2020/texmf-dist/tex/latex/graphics-cfg/graphics.cfg
INPUT /usr/local/texlive/2020/texmf-dist/tex/latex/graphics-def/pdftex.def
INPUT /usr/local/texlive/2020/texmf-dist/tex/latex/graphics-def/pdftex.def
INPUT /usr/local/texlive/2020/texmf-dist/tex/latex/graphics-def/pdftex.def
INPUT /usr/local/texlive/2020/texmf-dist/tex/latex/graphics-def/pdftex.def
INPUT /usr/local/texlive/2020/texmf-dist/tex/latex/l3packages/l3keys2e/l3keys2e.sty
INPUT /usr/local/texlive/2020/texmf-dist/tex/latex/l3packages/l3keys2e/l3keys2e.sty
INPUT /usr/local/texlive/2020/texmf-dist/tex/latex/l3packages/l3keys2e/l3keys2e.sty
INPUT /usr/local/texlive/2020/texmf-dist/tex/latex/l3packages/l3keys2e/l3keys2e.sty
INPUT /usr/local/texlive/2020/texmf-dist/tex/latex/l3packages/l3keys2e/l3keys2e.sty
INPUT /usr/local/texlive/2020/texmf-dist/tex/latex/l3packages/l3keys2e/l3keys2e.sty
INPUT /usr/local/texlive/2020/texmf-dist/tex/latex/l3packages/l3keys2e/l3keys2e.sty
INPUT /usr/local/texlive/2020/texmf-dist/tex/latex/l3packages/l3keys2e/l3keys2e.sty
INPUT /usr/local/texlive/2020/texmf-dist/tex/latex/l3packages/l3keys2e/l3keys2e.sty
INPUT /usr/local/texlive/2020/texmf-dist/tex/latex/l3packages/l3keys2e/l3keys2e.sty
INPUT /usr/local/texlive/2020/texmf-dist/tex/latex/base/textcomp.sty
INPUT /usr/local/texlive/2020/texmf-dist/tex/latex/base/textcomp.sty
INPUT /usr/local/texlive/2020/texmf-dist/tex/latex/base/textcomp.sty
INPUT /usr/local/texlive/2020/texmf-dist/tex/latex/base/textcomp.sty
INPUT /usr/local/texlive/2020/texmf-dist/tex/latex/base/textcomp.sty
INPUT /usr/local/texlive/2020/texmf-dist/tex/latex/base/textcomp.sty
INPUT /usr/local/texlive/2020/texmf-dist/tex/latex/base/textcomp.sty
INPUT /usr/local/texlive/2020/texmf-dist/tex/latex/base/textcomp.sty
INPUT /usr/local/texlive/2020/texmf-dist/tex/latex/base/textcomp.sty
INPUT /usr/local/texlive/2020/texmf-dist/tex/latex/base/textcomp.sty
INPUT /usr/local/texlive/2020/texmf-dist/tex/latex/l3packages/xparse/xparse.sty
INPUT /usr/local/texlive/2020/texmf-dist/tex/latex/l3packages/xparse/xparse.sty
INPUT /usr/local/texlive/2020/texmf-dist/tex/latex/l3packages/xparse/xparse.sty
INPUT /usr/local/texlive/2020/texmf-dist/tex/latex/l3packages/xparse/xparse.sty
INPUT /usr/local/texlive/2020/texmf-dist/tex/latex/l3packages/xparse/xparse.sty
INPUT /usr/local/texlive/2020/texmf-dist/tex/latex/l3packages/xparse/xparse.sty
INPUT /usr/local/texlive/2020/texmf-dist/tex/latex/l3packages/xparse/xparse.sty
INPUT /usr/local/texlive/2020/texmf-dist/tex/latex/l3packages/xparse/xparse.sty
INPUT /usr/local/texlive/2020/texmf-dist/tex/latex/l3packages/xparse/xparse.sty
INPUT /usr/local/texlive/2020/texmf-dist/tex/latex/l3packages/xparse/xparse.sty
INPUT /usr/local/texlive/2020/texmf-dist/tex/latex/l3packages/xparse/xparse-generic.tex
INPUT /usr/local/texlive/2020/texmf-dist/tex/latex/l3packages/xtemplate/xtemplate.sty
INPUT /usr/local/texlive/2020/texmf-dist/tex/latex/l3packages/xtemplate/xtemplate.sty
INPUT /usr/local/texlive/2020/texmf-dist/tex/latex/l3packages/xtemplate/xtemplate.sty
INPUT /usr/local/texlive/2020/texmf-dist/tex/latex/l3packages/xtemplate/xtemplate.sty
INPUT /usr/local/texlive/2020/texmf-dist/tex/latex/l3packages/xtemplate/xtemplate.sty
INPUT /usr/local/texlive/2020/texmf-dist/tex/latex/l3packages/xtemplate/xtemplate.sty
INPUT /usr/local/texlive/2020/texmf-dist/tex/latex/l3packages/xtemplate/xtemplate.sty
INPUT /usr/local/texlive/2020/texmf-dist/tex/latex/l3packages/xtemplate/xtemplate.sty
INPUT /usr/local/texlive/2020/texmf-dist/tex/latex/l3packages/xtemplate/xtemplate.sty
INPUT /usr/local/texlive/2020/texmf-dist/tex/latex/l3packages/xtemplate/xtemplate.sty
INPUT /usr/local/texlive/2020/texmf-dist/tex/latex/pdflscape/pdflscape.sty
INPUT /usr/local/texlive/2020/texmf-dist/tex/latex/pdflscape/pdflscape.sty
INPUT /usr/local/texlive/2020/texmf-dist/tex/latex/pdflscape/pdflscape.sty
INPUT /usr/local/texlive/2020/texmf-dist/tex/latex/pdflscape/pdflscape.sty
INPUT /usr/local/texlive/2020/texmf-dist/tex/latex/pdflscape/pdflscape.sty
INPUT /usr/local/texlive/2020/texmf-dist/tex/latex/pdflscape/pdflscape.sty
INPUT /usr/local/texlive/2020/texmf-dist/tex/latex/pdflscape/pdflscape.sty
INPUT /usr/local/texlive/2020/texmf-dist/tex/latex/pdflscape/pdflscape.sty
INPUT /usr/local/texlive/2020/texmf-dist/tex/latex/pdflscape/pdflscape.sty
INPUT /usr/local/texlive/2020/texmf-dist/tex/latex/pdflscape/pdflscape.sty
INPUT /usr/local/texlive/2020/texmf-dist/tex/latex/graphics/lscape.sty
INPUT /usr/local/texlive/2020/texmf-dist/tex/latex/graphics/lscape.sty
INPUT /usr/local/texlive/2020/texmf-dist/tex/latex/graphics/lscape.sty
INPUT /usr/local/texlive/2020/texmf-dist/tex/latex/graphics/lscape.sty
INPUT /usr/local/texlive/2020/texmf-dist/tex/latex/graphics/lscape.sty
INPUT /usr/local/texlive/2020/texmf-dist/tex/latex/graphics/lscape.sty
INPUT /usr/local/texlive/2020/texmf-dist/tex/latex/graphics/lscape.sty
INPUT /usr/local/texlive/2020/texmf-dist/tex/latex/graphics/lscape.sty
INPUT /usr/local/texlive/2020/texmf-dist/tex/latex/graphics/lscape.sty
INPUT /usr/local/texlive/2020/texmf-dist/tex/latex/graphics/lscape.sty
INPUT /usr/local/texlive/2020/texmf-dist/tex/latex/tools/multicol.sty
INPUT /usr/local/texlive/2020/texmf-dist/tex/latex/tools/multicol.sty
INPUT /usr/local/texlive/2020/texmf-dist/tex/latex/tools/multicol.sty
INPUT /usr/local/texlive/2020/texmf-dist/tex/latex/tools/multicol.sty
INPUT /usr/local/texlive/2020/texmf-dist/tex/latex/tools/multicol.sty
INPUT /usr/local/texlive/2020/texmf-dist/tex/latex/tools/multicol.sty
INPUT /usr/local/texlive/2020/texmf-dist/tex/latex/tools/multicol.sty
INPUT /usr/local/texlive/2020/texmf-dist/tex/latex/tools/multicol.sty
INPUT /usr/local/texlive/2020/texmf-dist/tex/latex/tools/multicol.sty
INPUT /usr/local/texlive/2020/texmf-dist/tex/latex/tools/multicol.sty
INPUT /Users/julijankatic/Documents/Universitaet/Master/Semester3/spmc/sum/predefinedmathsymbols.tex
INPUT /Users/julijankatic/Documents/Universitaet/Master/Semester3/spmc/sum/predefinedmathsymbols.tex
INPUT /Users/julijankatic/Documents/Universitaet/Master/Semester3/spmc/sum/predefinedmathsymbols.tex
INPUT /Users/julijankatic/Documents/Universitaet/Master/Semester3/spmc/sum/predefinedmathsymbols.tex
INPUT /Users/julijankatic/Documents/Universitaet/Master/Semester3/spmc/sum/predefinedmathsymbols.tex
INPUT /Users/julijankatic/Documents/Universitaet/Master/Semester3/spmc/sum/predefinedmathsymbols.tex
INPUT /Users/julijankatic/Documents/Universitaet/Master/Semester3/spmc/sum/predefinedmathsymbols.tex
INPUT /Users/julijankatic/Documents/Universitaet/Master/Semester3/spmc/sum/predefinedmathsymbols.tex
INPUT /Users/julijankatic/Documents/Universitaet/Master/Semester3/spmc/sum/predefinedmathsymbols.tex
INPUT /Users/julijankatic/Documents/Universitaet/Master/Semester3/spmc/sum/predefinedmathsymbols.tex
INPUT /Users/julijankatic/Documents/Universitaet/Master/Semester3/spmc/sum/predefinedmathsymbols.tex
INPUT /Users/julijankatic/Documents/Universitaet/Master/Semester3/spmc/sum/summarize.aux
INPUT /Users/julijankatic/Documents/Universitaet/Master/Semester3/spmc/sum/summarize.aux
INPUT /Users/julijankatic/Documents/Universitaet/Master/Semester3/spmc/sum/summarize.aux
OUTPUT /Users/julijankatic/Documents/Universitaet/Master/Semester3/spmc/sum/summarize.aux
INPUT /Users/julijankatic/Documents/Universitaet/Master/Semester3/spmc/sum/summarize.out
INPUT /Users/julijankatic/Documents/Universitaet/Master/Semester3/spmc/sum/summarize.out
INPUT /Users/julijankatic/Documents/Universitaet/Master/Semester3/spmc/sum/summarize.out
INPUT /Users/julijankatic/Documents/Universitaet/Master/Semester3/spmc/sum/summarize.out
INPUT /Users/julijankatic/Documents/Universitaet/Master/Semester3/spmc/sum/summarize.out
INPUT /Users/julijankatic/Documents/Universitaet/Master/Semester3/spmc/sum/summarize.out
INPUT /Users/julijankatic/Documents/Universitaet/Master/Semester3/spmc/sum/summarize.out
INPUT /Users/julijankatic/Documents/Universitaet/Master/Semester3/spmc/sum/summarize.out
OUTPUT /Users/julijankatic/Documents/Universitaet/Master/Semester3/spmc/sum/summarize.pdf
INPUT /Users/julijankatic/Documents/Universitaet/Master/Semester3/spmc/sum/summarize.out
INPUT /Users/julijankatic/Documents/Universitaet/Master/Semester3/spmc/sum/summarize.out
OUTPUT /Users/julijankatic/Documents/Universitaet/Master/Semester3/spmc/sum/summarize.out
INPUT /usr/local/texlive/2020/texmf-dist/tex/context/base/mkii/supp-pdf.mkii
INPUT /usr/local/texlive/2020/texmf-dist/tex/context/base/mkii/supp-pdf.mkii
INPUT /usr/local/texlive/2020/texmf-dist/tex/context/base/mkii/supp-pdf.mkii
INPUT /usr/local/texlive/2020/texmf-dist/tex/context/base/mkii/supp-pdf.mkii
INPUT /usr/local/texlive/2020/texmf-dist/tex/latex/epstopdf-pkg/epstopdf-base.sty
INPUT /usr/local/texlive/2020/texmf-dist/tex/latex/epstopdf-pkg/epstopdf-base.sty
INPUT /usr/local/texlive/2020/texmf-dist/tex/latex/epstopdf-pkg/epstopdf-base.sty
INPUT /usr/local/texlive/2020/texmf-dist/tex/latex/epstopdf-pkg/epstopdf-base.sty
INPUT /usr/local/texlive/2020/texmf-dist/tex/latex/epstopdf-pkg/epstopdf-base.sty
INPUT /usr/local/texlive/2020/texmf-dist/tex/latex/epstopdf-pkg/epstopdf-base.sty
INPUT /usr/local/texlive/2020/texmf-dist/tex/latex/epstopdf-pkg/epstopdf-base.sty
INPUT /usr/local/texlive/2020/texmf-dist/tex/latex/epstopdf-pkg/epstopdf-base.sty
INPUT /usr/local/texlive/2020/texmf-dist/tex/latex/epstopdf-pkg/epstopdf-base.sty
INPUT /usr/local/texlive/2020/texmf-dist/tex/latex/epstopdf-pkg/epstopdf-base.sty
INPUT /usr/local/texlive/2020/texmf-dist/tex/latex/latexconfig/epstopdf-sys.cfg
INPUT /usr/local/texlive/2020/texmf-dist/tex/latex/latexconfig/epstopdf-sys.cfg
INPUT /usr/local/texlive/2020/texmf-dist/tex/latex/latexconfig/epstopdf-sys.cfg
INPUT /usr/local/texlive/2020/texmf-dist/tex/latex/latexconfig/epstopdf-sys.cfg
INPUT /usr/local/texlive/2020/texmf-dist/fonts/map/fontname/texfonts.map
INPUT /usr/local/texlive/2020/texmf-dist/fonts/tfm/public/cm/cmr17.tfm
INPUT /usr/local/texlive/2020/texmf-dist/fonts/tfm/public/cm/cmr12.tfm
INPUT /usr/local/texlive/2020/texmf-dist/fonts/tfm/public/cm/cmr8.tfm
INPUT /usr/local/texlive/2020/texmf-dist/fonts/tfm/public/cm/cmr6.tfm
INPUT /usr/local/texlive/2020/texmf-dist/fonts/tfm/public/cm/cmmi12.tfm
INPUT /usr/local/texlive/2020/texmf-dist/fonts/tfm/public/cm/cmmi8.tfm
INPUT /usr/local/texlive/2020/texmf-dist/fonts/tfm/public/cm/cmmi6.tfm
INPUT /usr/local/texlive/2020/texmf-dist/fonts/tfm/public/cm/cmsy10.tfm
INPUT /usr/local/texlive/2020/texmf-dist/fonts/tfm/public/cm/cmsy8.tfm
INPUT /usr/local/texlive/2020/texmf-dist/fonts/tfm/public/cm/cmsy6.tfm
INPUT /usr/local/texlive/2020/texmf-dist/fonts/tfm/public/cm/cmex10.tfm
INPUT /usr/local/texlive/2020/texmf-dist/fonts/tfm/public/amsfonts/cmextra/cmex8.tfm
INPUT /usr/local/texlive/2020/texmf-dist/fonts/tfm/public/amsfonts/cmextra/cmex7.tfm
INPUT /usr/local/texlive/2020/texmf-dist/tex/latex/amsfonts/umsa.fd
INPUT /usr/local/texlive/2020/texmf-dist/tex/latex/amsfonts/umsa.fd
INPUT /usr/local/texlive/2020/texmf-dist/tex/latex/amsfonts/umsa.fd
INPUT /usr/local/texlive/2020/texmf-dist/tex/latex/amsfonts/umsa.fd
INPUT /usr/local/texlive/2020/texmf-dist/fonts/tfm/public/amsfonts/symbols/msam10.tfm
INPUT /usr/local/texlive/2020/texmf-dist/fonts/tfm/public/amsfonts/symbols/msam10.tfm
INPUT /usr/local/texlive/2020/texmf-dist/fonts/tfm/public/amsfonts/symbols/msam7.tfm
INPUT /usr/local/texlive/2020/texmf-dist/tex/latex/amsfonts/umsb.fd
INPUT /usr/local/texlive/2020/texmf-dist/tex/latex/amsfonts/umsb.fd
INPUT /usr/local/texlive/2020/texmf-dist/tex/latex/amsfonts/umsb.fd
INPUT /usr/local/texlive/2020/texmf-dist/tex/latex/amsfonts/umsb.fd
INPUT /usr/local/texlive/2020/texmf-dist/fonts/tfm/public/amsfonts/symbols/msbm10.tfm
INPUT /usr/local/texlive/2020/texmf-dist/fonts/tfm/public/amsfonts/symbols/msbm10.tfm
INPUT /usr/local/texlive/2020/texmf-dist/fonts/tfm/public/amsfonts/symbols/msbm7.tfm
INPUT /usr/local/texlive/2020/texmf-var/fonts/map/pdftex/updmap/pdftex.map
INPUT /usr/local/texlive/2020/texmf-dist/fonts/tfm/public/cm/cmr17.tfm
INPUT /usr/local/texlive/2020/texmf-dist/fonts/tfm/public/cm/cmbx12.tfm
INPUT /Users/julijankatic/Documents/Universitaet/Master/Semester3/spmc/sum/summarize.toc
INPUT /Users/julijankatic/Documents/Universitaet/Master/Semester3/spmc/sum/summarize.toc
INPUT /Users/julijankatic/Documents/Universitaet/Master/Semester3/spmc/sum/summarize.toc
INPUT /usr/local/texlive/2020/texmf-dist/fonts/tfm/public/cm/cmbx10.tfm
INPUT /usr/local/texlive/2020/texmf-dist/fonts/tfm/public/amsfonts/cmextra/cmex7.tfm
INPUT /usr/local/texlive/2020/texmf-dist/fonts/tfm/public/amsfonts/cmextra/cmex7.tfm
INPUT /usr/local/texlive/2020/texmf-dist/fonts/tfm/public/amsfonts/symbols/msam10.tfm
INPUT /usr/local/texlive/2020/texmf-dist/fonts/tfm/public/amsfonts/symbols/msam7.tfm
INPUT /usr/local/texlive/2020/texmf-dist/fonts/tfm/public/amsfonts/symbols/msam5.tfm
INPUT /usr/local/texlive/2020/texmf-dist/fonts/tfm/public/amsfonts/symbols/msbm10.tfm
INPUT /usr/local/texlive/2020/texmf-dist/fonts/tfm/public/amsfonts/symbols/msbm7.tfm
INPUT /usr/local/texlive/2020/texmf-dist/fonts/tfm/public/amsfonts/symbols/msbm5.tfm
OUTPUT /Users/julijankatic/Documents/Universitaet/Master/Semester3/spmc/sum/summarize.toc
INPUT /Users/julijankatic/Documents/Universitaet/Master/Semester3/spmc/sum/summarize.loe
INPUT /Users/julijankatic/Documents/Universitaet/Master/Semester3/spmc/sum/summarize.loe
INPUT /Users/julijankatic/Documents/Universitaet/Master/Semester3/spmc/sum/summarize.loe
INPUT /Users/julijankatic/Documents/Universitaet/Master/Semester3/spmc/sum/chapters/securitygames.tex
INPUT /Users/julijankatic/Documents/Universitaet/Master/Semester3/spmc/sum/chapters/securitygames.tex
INPUT /Users/julijankatic/Documents/Universitaet/Master/Semester3/spmc/sum/chapters/securitygames.tex
INPUT /Users/julijankatic/Documents/Universitaet/Master/Semester3/spmc/sum/chapters/securitygames.tex
INPUT /usr/local/texlive/2020/texmf-dist/fonts/tfm/public/cm/cmr17.tfm
INPUT /usr/local/texlive/2020/texmf-dist/fonts/tfm/public/cm/cmbx12.tfm
INPUT /Users/julijankatic/Documents/Universitaet/Master/Semester3/spmc/sum/chapters/index.tex
INPUT /Users/julijankatic/Documents/Universitaet/Master/Semester3/spmc/sum/chapters/index.tex
INPUT /Users/julijankatic/Documents/Universitaet/Master/Semester3/spmc/sum/chapters/index.tex
INPUT /Users/julijankatic/Documents/Universitaet/Master/Semester3/spmc/sum/chapters/index.tex
INPUT /usr/local/texlive/2020/texmf-dist/fonts/tfm/public/cm/cmr12.tfm
INPUT /usr/local/texlive/2020/texmf-dist/fonts/tfm/public/cm/cmbx12.tfm
INPUT /usr/local/texlive/2020/texmf-dist/fonts/tfm/public/cm/cmss10.tfm
INPUT /usr/local/texlive/2020/texmf-dist/fonts/tfm/public/cm/cmss8.tfm
INPUT /usr/local/texlive/2020/texmf-dist/fonts/tfm/public/cm/cmss8.tfm
OUTPUT /Users/julijankatic/Documents/Universitaet/Master/Semester3/spmc/sum/summarize.thm
OUTPUT /Users/julijankatic/Documents/Universitaet/Master/Semester3/spmc/sum/summarize.loe
INPUT /usr/local/texlive/2020/texmf-dist/fonts/tfm/public/cm/cmsl10.tfm
INPUT /Users/julijankatic/Documents/Universitaet/Master/Semester3/spmc/sum/summarize.aux
INPUT /Users/julijankatic/Documents/Universitaet/Master/Semester3/spmc/sum/summarize.out
INPUT /Users/julijankatic/Documents/Universitaet/Master/Semester3/spmc/sum/summarize.out
INPUT /usr/local/texlive/2020/texmf-dist/fonts/type1/public/amsfonts/cm/cmbx10.pfb
INPUT /usr/local/texlive/2020/texmf-dist/fonts/type1/public/amsfonts/cm/cmbx12.pfb
INPUT /usr/local/texlive/2020/texmf-dist/fonts/type1/public/amsfonts/cm/cmex10.pfb
INPUT /usr/local/texlive/2020/texmf-dist/fonts/type1/public/amsfonts/cm/cmmi10.pfb
INPUT /usr/local/texlive/2020/texmf-dist/fonts/type1/public/amsfonts/cm/cmmi5.pfb
INPUT /usr/local/texlive/2020/texmf-dist/fonts/type1/public/amsfonts/cm/cmmi7.pfb
INPUT /usr/local/texlive/2020/texmf-dist/fonts/type1/public/amsfonts/cm/cmr10.pfb
INPUT /usr/local/texlive/2020/texmf-dist/fonts/type1/public/amsfonts/cm/cmr12.pfb
INPUT /usr/local/texlive/2020/texmf-dist/fonts/type1/public/amsfonts/cm/cmr17.pfb
INPUT /usr/local/texlive/2020/texmf-dist/fonts/type1/public/amsfonts/cm/cmr5.pfb
INPUT /usr/local/texlive/2020/texmf-dist/fonts/type1/public/amsfonts/cm/cmr7.pfb
INPUT /usr/local/texlive/2020/texmf-dist/fonts/type1/public/amsfonts/cm/cmsl10.pfb
INPUT /usr/local/texlive/2020/texmf-dist/fonts/type1/public/amsfonts/cm/cmss10.pfb
INPUT /usr/local/texlive/2020/texmf-dist/fonts/type1/public/amsfonts/cm/cmsy10.pfb
INPUT /usr/local/texlive/2020/texmf-dist/fonts/type1/public/amsfonts/cm/cmsy5.pfb
INPUT /usr/local/texlive/2020/texmf-dist/fonts/type1/public/amsfonts/cm/cmsy7.pfb
INPUT /usr/local/texlive/2020/texmf-dist/fonts/type1/public/amsfonts/symbols/msbm10.pfb
