\BOOKMARK [1][-]{section.0}{Possibilistic Security, Vernam and Probability}{}% 1
\BOOKMARK [2][-]{subsection.0.1}{Possibilistic Security}{section.0}% 2
\BOOKMARK [2][-]{subsection.0.2}{Variant of Vernam}{section.0}% 3
\BOOKMARK [2][-]{subsection.0.3}{Properties of probability distributions}{section.0}% 4
\BOOKMARK [1][-]{section.1}{Probability and Perfect Secrecy}{}% 5
\BOOKMARK [2][-]{subsection.1.1}{Conditional Probability is a Probability Distribution}{section.1}% 6
\BOOKMARK [2][-]{subsection.1.2}{Alternative formulation of independent events}{section.1}% 7
\BOOKMARK [2][-]{subsection.1.3}{Perfect secrecy of Cryptosystems}{section.1}% 8
\BOOKMARK [2][-]{subsection.1.4}{Probabilities of Plaintexts in Cryptosystems}{section.1}% 9
\BOOKMARK [2][-]{subsection.1.5}{Perfect secrecy and key distributions}{section.1}% 10
\BOOKMARK [1][-]{section.2}{SPCS, Linear dependencies and Probabilistic Algorithms}{}% 11
\BOOKMARK [2][-]{subsection.2.1}{Importance of the S-Box in SPCS}{section.2}% 12
