\relax 
\providecommand\hyper@newdestlabel[2]{}
\providecommand\babel@aux[2]{}
\@nameuse{bbl@beforestart}
\providecommand\HyperFirstAtBeginDocument{\AtBeginDocument}
\HyperFirstAtBeginDocument{\ifx\hyper@anchor\@undefined
\global\let\oldcontentsline\contentsline
\gdef\contentsline#1#2#3#4{\oldcontentsline{#1}{#2}{#3}}
\global\let\oldnewlabel\newlabel
\gdef\newlabel#1#2{\newlabelxx{#1}#2}
\gdef\newlabelxx#1#2#3#4#5#6{\oldnewlabel{#1}{{#2}{#3}}}
\AtEndDocument{\ifx\hyper@anchor\@undefined
\let\contentsline\oldcontentsline
\let\newlabel\oldnewlabel
\fi}
\fi}
\global\let\hyper@last\relax 
\gdef\HyperFirstAtBeginDocument#1{#1}
\providecommand\HyField@AuxAddToFields[1]{}
\providecommand\HyField@AuxAddToCoFields[2]{}
\babel@aux{english}{}
\@writefile{toc}{\contentsline {section}{\numberline {Homework 0:}Possibilistic Security, Vernam and Probability}{}{section.0}\protected@file@percent }
\@writefile{toc}{\contentsline {subsection}{\numberline {Problem 1:}Possibilistic Security}{}{subsection.0.1}\protected@file@percent }
\@writefile{toc}{\contentsline {subsection}{\numberline {Problem 2:}Variant of Vernam}{}{subsection.0.2}\protected@file@percent }
\@writefile{toc}{\contentsline {subsection}{\numberline {Problem 3:}Properties of probability distributions}{}{subsection.0.3}\protected@file@percent }
\@writefile{toc}{\contentsline {section}{\numberline {Homework 1:}Probability and Perfect Secrecy}{}{section.1}\protected@file@percent }
\@writefile{toc}{\contentsline {subsection}{\numberline {Problem 1:}Conditional Probability is a Probability Distribution}{}{subsection.1.1}\protected@file@percent }
\@writefile{toc}{\contentsline {subsection}{\numberline {Problem 2:}Alternative formulation of independent events}{}{subsection.1.2}\protected@file@percent }
\@writefile{toc}{\contentsline {subsection}{\numberline {Problem 3:}Perfect secrecy of Cryptosystems}{}{subsection.1.3}\protected@file@percent }
\@writefile{toc}{\contentsline {subsection}{\numberline {Problem 4:}Probabilities of Plaintexts in Cryptosystems}{}{subsection.1.4}\protected@file@percent }
\@writefile{toc}{\contentsline {subsection}{\numberline {Problem 5:}Perfect secrecy and key distributions}{}{subsection.1.5}\protected@file@percent }
\@writefile{toc}{\contentsline {section}{\numberline {Homework 2:}SPCS, Linear dependencies and Probabilistic Algorithms}{}{section.2}\protected@file@percent }
\@writefile{toc}{\contentsline {subsection}{\numberline {Problem 1:}Importance of the $S$-Box in SPCS}{}{subsection.2.1}\protected@file@percent }
\gdef \@abspage@last{6}
